Showcase: YouTube
…
Explorative analysis

Identify correct ID

# Overview
channel_search %>%
  select(position , id, title)

# A tibble: 50 × 3
   position id                       title                        
      <dbl> <chr>                    <chr>                        
 1        1 UCyHDQ5C6z1NDmJ4g6SerW8g maiLab                       
 2        2 UC146qqkUMTrn4nfSSOTNwiA musstewissen Chemie          
 3        3 UCoHodUr9NAaifHqJRgMwY4g mailab                       
 4        4 UCQHZ9D6ZWZPCcO-fL4evc8A Mailab channel               
 5        5 UCM_omPq1D9zW2KgiuZCC2SA MAILab_메일랩                
 6        6 UCDrzb2QiHRTQdUUmkDcfWUg Mailab Khan                  
 7        7 UChwL2zraRR_BaDS5JcFMbmQ Software MaiLab              
 8        8 UCTobdb_mdgB39xMu2DyzOSA Mailab MEB                   
 9        9 UCSuPexPvmai-NYR_1aVPg5A Mailab                       
10       10 UCqSllZ7UUq0giIkkPfVYujg The Secret Life Of Scientists
# … with 40 more rows
…
